%YAML 1.1
%TAG !u! tag:unity3d.com,2011:
--- !u!114 &11400000
MonoBehaviour:
  m_ObjectHideFlags: 0
  m_CorrespondingSourceObject: {fileID: 0}
  m_PrefabInstance: {fileID: 0}
  m_PrefabAsset: {fileID: 0}
  m_GameObject: {fileID: 0}
  m_Enabled: 1
  m_EditorHideFlags: 0
  m_Script: {fileID: 11500000, guid: f5b61623a4962424cb5f97e1bbe702d3, type: 3}
  m_Name: abokado
  m_EditorClassIdentifier: 
  illustrationSprite: {fileID: 21300000, guid: 05683c6630dba5b42af90d0b1faa7def, type: 3}
  illustrationName: abokado
  illustrationVoice: {fileID: 0}
  illustrationTranslationImage: {fileID: 21300000, guid: 5dd27b58e932e8a4d9d41f4e601f81c1, type: 3}
