%YAML 1.1
%TAG !u! tag:unity3d.com,2011:
--- !u!114 &11400000
MonoBehaviour:
  m_ObjectHideFlags: 0
  m_CorrespondingSourceObject: {fileID: 0}
  m_PrefabInstance: {fileID: 0}
  m_PrefabAsset: {fileID: 0}
  m_GameObject: {fileID: 0}
  m_Enabled: 1
  m_EditorHideFlags: 0
  m_Script: {fileID: 11500000, guid: f95812e57c37fa943a13ff5771d3b017, type: 3}
  m_Name: L
  m_EditorClassIdentifier: 
  baseImage:
  - {fileID: 21300000, guid: e7dc759ea33b82a4e8cb6ed9b85a67c0, type: 3}
  - {fileID: 21300000, guid: c58f2ad9bb6d2f24ebda39acefa55718, type: 3}
  baseName: L
  baseDescription: 
  baseAudio: {fileID: 0}
