%YAML 1.1
%TAG !u! tag:unity3d.com,2011:
--- !u!114 &11400000
MonoBehaviour:
  m_ObjectHideFlags: 0
  m_CorrespondingSourceObject: {fileID: 0}
  m_PrefabInstance: {fileID: 0}
  m_PrefabAsset: {fileID: 0}
  m_GameObject: {fileID: 0}
  m_Enabled: 1
  m_EditorHideFlags: 0
  m_Script: {fileID: 11500000, guid: f95812e57c37fa943a13ff5771d3b017, type: 3}
  m_Name: W
  m_EditorClassIdentifier: 
  baseImage:
  - {fileID: 21300000, guid: 12ba0d687408c6c43b8ba3f2924401c2, type: 3}
  - {fileID: 21300000, guid: 5d9c27f189894ab4a866b4a6369d6f27, type: 3}
  baseName: W
  baseDescription: 
  baseAudio: {fileID: 0}
